{
  "totalResults": 9,
  "page": 1,
  "pageSize": 5,
  "pageCount": 2,
  "results": [
    {
      "code": "868",
      "name": "Windsor and Maidenhead"
    },
    {
      "code": "943",
      "name": "Westmorland and Furness"
    },
    {
      "code": "894",
      "name": "Telford and Wrekin"
    },
    {
      "code": "807",
      "name": "Redcar and Cleveland"
    },
    {
      "code": "207",
      "name": "Kensington and Chelsea"
    }
  ]
}