{"totalResults":760,"page":2,"pageSize":5,"pageCount":152,"results":[{"urn":"990014","schoolName":"Test school 68","addressStreet":"address 243","addressLocality":"","addressLine3":"Brixton","addressTown":"London","addressCounty":"","addressPostcode":"ABC365","overallPhase":"Nursery","periodCoveredByReturn":12,"totalPupils":339},{"urn":"990018","schoolName":"Test school 219","addressStreet":"address 134","addressLocality":"Hackney","addressLine3":"","addressTown":"London","addressCounty":"","addressPostcode":"ABC256","overallPhase":"Secondary","periodCoveredByReturn":12,"totalPupils":37},{"urn":"990031","schoolName":"Test school 26","addressStreet":"address 179","addressLocality":"Upper Street","addressLine3":"","addressTown":"London","addressCounty":"","addressPostcode":"ABC301","overallPhase":"Primary","periodCoveredByReturn":12,"totalPupils":769},{"urn":"990111","schoolName":"Test school 94","addressStreet":"address 272","addressLocality":"Lambeth","addressLine3":"Kennington","addressTown":"London","addressCounty":"","addressPostcode":"ABC394","overallPhase":"Primary","periodCoveredByReturn":12,"totalPupils":1040},{"urn":"990140","schoolName":"Test school 69","addressStreet":"address 244","addressLocality":"","addressLine3":"","addressTown":"London","addressCounty":"","addressPostcode":"ABC366","overallPhase":"Nursery","periodCoveredByReturn":12,"totalPupils":450}]}