{"totalResults":760,"page":1,"pageSize":15,"pageCount":51,"results":[{"urn":"990324","schoolName":"Test academy school 1","addressStreet":"address 293","addressLocality":"Brixton","addressLine3":"","addressTown":"Manchester","addressCounty":"Greater Manchester","addressPostcode":"ABC415","overallPhase":"Primary","periodCoveredByReturn":12,"totalPupils":270},{"urn":"990372","schoolName":"Test academy school 10","addressStreet":"address 291","addressLocality":"Brixton","addressLine3":"","addressTown":"Manchester","addressCounty":"Greater Manchester","addressPostcode":"ABC413","overallPhase":"Primary","periodCoveredByReturn":12,"totalPupils":114},{"urn":"990335","schoolName":"Test academy school 100","addressStreet":"address 289","addressLocality":"Brixton","addressLine3":"","addressTown":"Manchester","addressCounty":"Greater Manchester","addressPostcode":"ABC411","overallPhase":"Secondary","periodCoveredByReturn":12,"totalPupils":37},{"urn":"990512","schoolName":"Test academy school 101","addressStreet":"address 378","addressLocality":"Camberwell New Road","addressLine3":"","addressTown":"Manchester","addressCounty":"Greater Manchester","addressPostcode":"ABC500","overallPhase":"Pupil referral unit","periodCoveredByReturn":12,"totalPupils":17},{"urn":"990550","schoolName":"Test academy school 102","addressStreet":"address 379","addressLocality":"Brixton","addressLine3":"","addressTown":"London","addressCounty":"","addressPostcode":"ABC501","overallPhase":"Pupil referral unit","periodCoveredByReturn":12,"totalPupils":335},{"urn":"990435","schoolName":"Test academy school 103","addressStreet":"address 380","addressLocality":"Camberwell New Road","addressLine3":"","addressTown":"London","addressCounty":"","addressPostcode":"ABC502","overallPhase":"Pupil referral unit","periodCoveredByReturn":12,"totalPupils":418},{"urn":"990423","schoolName":"Test academy school 104","addressStreet":"address 381","addressLocality":"Brixton","addressLine3":"","addressTown":"London","addressCounty":"","addressPostcode":"ABC503","overallPhase":"Pupil referral unit","periodCoveredByReturn":12,"totalPupils":367},{"urn":"990460","schoolName":"Test academy school 105","addressStreet":"address 382","addressLocality":"Camberwell New Road","addressLine3":"","addressTown":"London","addressCounty":"","addressPostcode":"ABC504","overallPhase":"Pupil referral unit","periodCoveredByReturn":12,"totalPupils":407},{"urn":"990471","schoolName":"Test academy school 106","addressStreet":"address 383","addressLocality":"Brixton","addressLine3":"","addressTown":"London","addressCounty":"","addressPostcode":"ABC505","overallPhase":"Pupil referral unit","periodCoveredByReturn":12,"totalPupils":191},{"urn":"990452","schoolName":"Test academy school 107","addressStreet":"address 384","addressLocality":"Camberwell New Road","addressLine3":"","addressTown":"London","addressCounty":"","addressPostcode":"ABC506","overallPhase":"Pupil referral unit","periodCoveredByReturn":12,"totalPupils":230},{"urn":"990379","schoolName":"Test academy school 108","addressStreet":"address 385","addressLocality":"Brixton","addressLine3":"","addressTown":"London","addressCounty":"","addressPostcode":"ABC507","overallPhase":"Pupil referral unit","periodCoveredByReturn":12,"totalPupils":216},{"urn":"990380","schoolName":"Test academy school 109","addressStreet":"address 386","addressLocality":"Camberwell New Road","addressLine3":"","addressTown":"London","addressCounty":"","addressPostcode":"ABC508","overallPhase":"Pupil referral unit","periodCoveredByReturn":12,"totalPupils":399},{"urn":"990395","schoolName":"Test academy school 11","addressStreet":"address 294","addressLocality":"Camberwell New Road","addressLine3":"","addressTown":"London","addressCounty":"","addressPostcode":"ABC416","overallPhase":"Primary","periodCoveredByReturn":12,"totalPupils":339},{"urn":"990448","schoolName":"Test academy school 110","addressStreet":"address 387","addressLocality":"Brixton","addressLine3":"","addressTown":"London","addressCounty":"","addressPostcode":"ABC509","overallPhase":"Pupil referral unit","periodCoveredByReturn":12,"totalPupils":450},{"urn":"990577","schoolName":"Test academy school 111","addressStreet":"address 388","addressLocality":"Camberwell New Road","addressLine3":"","addressTown":"London","addressCounty":"","addressPostcode":"ABC510","overallPhase":"Pupil referral unit","periodCoveredByReturn":12,"totalPupils":317}]}