{"totalResults":299,"page":1,"pageSize":15,"pageCount":20,"results":[{"urn":"990104","schoolName":"Test school 64","addressStreet":"address 239","addressLocality":"Kensington and Chelsea","addressLine3":"Our Lady of Victories Primary School","addressTown":"London","addressCounty":"","addressPostcode":"ABC361","overallPhase":"Primary","periodCoveredByReturn":12,"totalPupils":191},{"urn":"990039","schoolName":"Test school 159","addressStreet":"address 67","addressLocality":"Plumstead","addressLine3":"Plumcroft Primary School","addressTown":"London","addressCounty":"","addressPostcode":"ABC189","overallPhase":"Primary","periodCoveredByReturn":12,"totalPupils":134},{"urn":"990196","schoolName":"Test school 208","addressStreet":"address 122","addressLocality":"","addressLine3":"Parkwood Primary School","addressTown":"LONDON","addressCounty":"","addressPostcode":"ABC244","overallPhase":"Primary","periodCoveredByReturn":12,"totalPupils":883},{"urn":"990031","schoolName":"Test school 26","addressStreet":"address 179","addressLocality":"Upper Street","addressLine3":"","addressTown":"London","addressCounty":"","addressPostcode":"ABC301","overallPhase":"Primary","periodCoveredByReturn":12,"totalPupils":769},{"urn":"990111","schoolName":"Test school 94","addressStreet":"address 272","addressLocality":"Lambeth","addressLine3":"Kennington","addressTown":"London","addressCounty":"","addressPostcode":"ABC394","overallPhase":"Primary","periodCoveredByReturn":12,"totalPupils":1040},{"urn":"990155","schoolName":"Test school 81","addressStreet":"address 258","addressLocality":"Brixton","addressLine3":"","addressTown":"London","addressCounty":"","addressPostcode":"ABC380","overallPhase":"Primary","periodCoveredByReturn":12,"totalPupils":303},{"urn":"990163","schoolName":"Test school 47","addressStreet":"address 220","addressLocality":"","addressLine3":"","addressTown":"London","addressCounty":"","addressPostcode":"ABC342","overallPhase":"Primary","periodCoveredByReturn":12,"totalPupils":260},{"urn":"990205","schoolName":"Test school 76","addressStreet":"address 252","addressLocality":"Herne Hill","addressLine3":"","addressTown":"London","addressCounty":"","addressPostcode":"ABC374","overallPhase":"Primary","periodCoveredByReturn":12,"totalPupils":212},{"urn":"990208","schoolName":"Test school 29","addressStreet":"address 200","addressLocality":"Goswell Road","addressLine3":"Islington","addressTown":"London","addressCounty":"","addressPostcode":"ABC322","overallPhase":"Primary","periodCoveredByReturn":12,"totalPupils":232},{"urn":"990229","schoolName":"Test school 276","addressStreet":"address 197","addressLocality":"","addressLine3":"","addressTown":"London","addressCounty":"","addressPostcode":"ABC319","overallPhase":"Primary","periodCoveredByReturn":12,"totalPupils":407},{"urn":"990273","schoolName":"Test school 214","addressStreet":"address 129","addressLocality":"Stoke Newington","addressLine3":"","addressTown":"London","addressCounty":"","addressPostcode":"ABC251","overallPhase":"Primary","periodCoveredByReturn":12,"totalPupils":769},{"urn":"990327","schoolName":"Test academy school 29","addressStreet":"address 318","addressLocality":"Camberwell New Road","addressLine3":"","addressTown":"London","addressCounty":"","addressPostcode":"ABC440","overallPhase":"Primary","periodCoveredByReturn":12,"totalPupils":236},{"urn":"990414","schoolName":"Test academy school 21","addressStreet":"address 311","addressLocality":"Brixton","addressLine3":"","addressTown":"London","addressCounty":"","addressPostcode":"ABC433","overallPhase":"Primary","periodCoveredByReturn":12,"totalPupils":303},{"urn":"990420","schoolName":"Test academy school 12","addressStreet":"address 303","addressLocality":"Brixton","addressLine3":"","addressTown":"London","addressCounty":"","addressPostcode":"ABC425","overallPhase":"Primary","periodCoveredByReturn":12,"totalPupils":232},{"urn":"990432","schoolName":"Test academy school 222","addressStreet":"address 518","addressLocality":"Camberwell New Road","addressLine3":"","addressTown":"London","addressCounty":"","addressPostcode":"ABC640","overallPhase":"Primary","periodCoveredByReturn":12,"totalPupils":1040}]}