{"totalResults":760,"page":1,"pageSize":15,"pageCount":51,"results":[{"urn":"990104","schoolName":"Test school 64","addressStreet":"address 239","addressLocality":"Kensington and Chelsea","addressLine3":"Our Lady of Victories Primary School","addressTown":"London","addressCounty":"","addressPostcode":"ABC361","overallPhase":"Primary","periodCoveredByReturn":12,"totalPupils":191},{"urn":"990039","schoolName":"Test school 159","addressStreet":"address 67","addressLocality":"Plumstead","addressLine3":"Plumcroft Primary School","addressTown":"London","addressCounty":"","addressPostcode":"ABC189","overallPhase":"Primary","periodCoveredByReturn":12,"totalPupils":134},{"urn":"990196","schoolName":"Test school 208","addressStreet":"address 122","addressLocality":"","addressLine3":"Parkwood Primary School","addressTown":"LONDON","addressCounty":"","addressPostcode":"ABC244","overallPhase":"Primary","periodCoveredByReturn":12,"totalPupils":883},{"urn":"777054","schoolName":"Test academy school 92","addressStreet":"address 281","addressLocality":"Brixton","addressLine3":"","addressTown":"London","addressCounty":"","addressPostcode":"ABC403","overallPhase":"Secondary","periodCoveredByReturn":3,"totalPupils":216},{"urn":"990007","schoolName":"Test school 249","addressStreet":"address 167","addressLocality":"White City","addressLine3":"","addressTown":"London","addressCounty":"","addressPostcode":"ABC289","overallPhase":"Special","periodCoveredByReturn":12,"totalPupils":134},{"urn":"990014","schoolName":"Test school 68","addressStreet":"address 243","addressLocality":"","addressLine3":"Brixton","addressTown":"London","addressCounty":"","addressPostcode":"ABC365","overallPhase":"Nursery","periodCoveredByReturn":12,"totalPupils":339},{"urn":"990018","schoolName":"Test school 219","addressStreet":"address 134","addressLocality":"Hackney","addressLine3":"","addressTown":"London","addressCounty":"","addressPostcode":"ABC256","overallPhase":"Secondary","periodCoveredByReturn":12,"totalPupils":37},{"urn":"990031","schoolName":"Test school 26","addressStreet":"address 179","addressLocality":"Upper Street","addressLine3":"","addressTown":"London","addressCounty":"","addressPostcode":"ABC301","overallPhase":"Primary","periodCoveredByReturn":12,"totalPupils":769},{"urn":"990111","schoolName":"Test school 94","addressStreet":"address 272","addressLocality":"Lambeth","addressLine3":"Kennington","addressTown":"London","addressCounty":"","addressPostcode":"ABC394","overallPhase":"Primary","periodCoveredByReturn":12,"totalPupils":1040},{"urn":"990140","schoolName":"Test school 69","addressStreet":"address 244","addressLocality":"","addressLine3":"","addressTown":"London","addressCounty":"","addressPostcode":"ABC366","overallPhase":"Nursery","periodCoveredByReturn":12,"totalPupils":450},{"urn":"990155","schoolName":"Test school 81","addressStreet":"address 258","addressLocality":"Brixton","addressLine3":"","addressTown":"London","addressCounty":"","addressPostcode":"ABC380","overallPhase":"Primary","periodCoveredByReturn":12,"totalPupils":303},{"urn":"990163","schoolName":"Test school 47","addressStreet":"address 220","addressLocality":"","addressLine3":"","addressTown":"London","addressCounty":"","addressPostcode":"ABC342","overallPhase":"Primary","periodCoveredByReturn":12,"totalPupils":260},{"urn":"990205","schoolName":"Test school 76","addressStreet":"address 252","addressLocality":"Herne Hill","addressLine3":"","addressTown":"London","addressCounty":"","addressPostcode":"ABC374","overallPhase":"Primary","periodCoveredByReturn":12,"totalPupils":212},{"urn":"990208","schoolName":"Test school 29","addressStreet":"address 200","addressLocality":"Goswell Road","addressLine3":"Islington","addressTown":"London","addressCounty":"","addressPostcode":"ABC322","overallPhase":"Primary","periodCoveredByReturn":12,"totalPupils":232},{"urn":"990229","schoolName":"Test school 276","addressStreet":"address 197","addressLocality":"","addressLine3":"","addressTown":"London","addressCounty":"","addressPostcode":"ABC319","overallPhase":"Primary","periodCoveredByReturn":12,"totalPupils":407}]}